<?xml version="1.0" encoding="UTF-8" standalone="no"?>
<svg
   xmlns:dc="http://purl.org/dc/elements/1.1/"
   xmlns:cc="http://creativecommons.org/ns#"
   xmlns:rdf="http://www.w3.org/1999/02/22-rdf-syntax-ns#"
   xmlns:svg="http://www.w3.org/2000/svg"
   xmlns="http://www.w3.org/2000/svg"
   xmlns:sodipodi="http://sodipodi.sourceforge.net/DTD/sodipodi-0.dtd"
   xmlns:inkscape="http://www.inkscape.org/namespaces/inkscape"
   width="48"
   height="48"
   viewBox="0 0 12.7 12.7"
   version="1.1"
   id="svg8"
   inkscape:version="1.0.1 (3bc2e813f5, 2020-09-07)"
   sodipodi:docname="logo.svg">
  <defs
     id="defs2" />
  <sodipodi:namedview
     id="base"
     pagecolor="#ffffff"
     bordercolor="#666666"
     borderopacity="1.0"
     inkscape:pageopacity="0.0"
     inkscape:pageshadow="2"
     inkscape:zoom="8.1759222"
     inkscape:cx="19.528737"
     inkscape:cy="21.181586"
     inkscape:document-units="mm"
     inkscape:current-layer="layer1"
     inkscape:document-rotation="0"
     showgrid="false"
     units="px"
     inkscape:window-width="1366"
     inkscape:window-height="750"
     inkscape:window-x="0"
     inkscape:window-y="18"
     inkscape:window-maximized="0" />
  <metadata
     id="metadata5">
    <rdf:RDF>
      <cc:Work
         rdf:about="">
        <dc:format>image/svg+xml</dc:format>
        <dc:type
           rdf:resource="http://purl.org/dc/dcmitype/StillImage" />
        <dc:title></dc:title>
      </cc:Work>
    </rdf:RDF>
  </metadata>
  <g
     inkscape:label="Camada 1"
     inkscape:groupmode="layer"
     id="layer1">
    <circle
       style="fill:none;stroke-width:0.366;stroke-linecap:round;stroke-linejoin:round;stroke:#00b0ff;stroke-miterlimit:4;stroke-dasharray:none;stroke-opacity:1"
       id="path10"
       cx="6.3499999"
       cy="6.3499999"
       r="5.9487982" />
    <g
       id="g90"
       transform="matrix(0.40964669,0,0,0.40964669,14.86461,5.5859513)">
      <rect
         style="fill:#ff6600;stroke-width:6.13184;stroke-linecap:round;stroke-linejoin:round"
         id="rect50"
         width="6.052372"
         height="2.7846782"
         x="-26.255293"
         y="9.8867445"
         ry="1.3923391" />
      <g
         id="g82">
        <rect
           style="fill:#ff6600;stroke-width:9.31555;stroke-linecap:round;stroke-linejoin:round"
           id="rect46"
           width="13.968848"
           height="2.7846782"
           x="-27.502052"
           y="-8.9411421"
           ry="1.3923391" />
        <rect
           style="fill:#ff6600;stroke-width:8.29561;stroke-linecap:round;stroke-linejoin:round"
           id="rect48"
           width="11.077472"
           height="2.7846782"
           x="-28.0373"
           y="-2.5911422"
           ry="1.3923391" />
        <rect
           style="fill:#ff6600;stroke-width:10.17;stroke-linecap:round;stroke-linejoin:round"
           id="rect52"
           width="16.648729"
           height="2.7846782"
           x="-7.7312074"
           y="-25.251085"
           ry="1.3923391"
           transform="rotate(-90)" />
      </g>
      <rect
         style="fill:#ff6600;stroke-width:6.13184;stroke-linecap:round;stroke-linejoin:round"
         id="rect54"
         width="6.052372"
         height="2.7846782"
         x="-26.255293"
         y="9.8867445"
         ry="1.3923391" />
    </g>
  </g>
</svg>
